[
    {
      "capsuleName": "Minha cápsula",
      "id": "1",
      "userId": 2,
      "position": [300.212052, 0.088733],
      "userName": "Zueiras 2017",
      "isOpen": true,
      "years": 50,
      "data": [
        {
          "type": "audio",
          "content": "/data/audio.mp3",
          "description": "Uma mensagem para você"
        },
        {
          "type": "image",
          "content": "/data/eainega.jpg",
          "description": "Imagem da minha infância"
        },
        {
          "type": "video",
          "content": "/data/video.mp4",
          "description": "Meu filme preferido"
        },
        {
          "type": "text",
          "content": "Kkk eae men bem interessante seu post aí como vc pode ver provocou varias risadas entre o pessoal desse grupo mais eu venho lhe trazer um ultimato aqui que me foi dito e parece que esse seu meme aí é um kibe da south america memes mano n queria falar assim mas olha foi a informação que me passaram né então se eu fosse você eu apagava porque o pessoal da south america memes é brabo"
        },
        {
          "type": "image",
          "content": "pasta-do-arquivo/imagem.jpg",
          "description": "Imagem da minha infância"
        },
        {
          "type": "text",
          "content": "letra de alguma musica"
        },
        {
          "type": "audio",
          "content": "pasta-do-arquivo/audio.mp3",
          "description": "Uma mensagem para você"
        },
        {
          "type": "image",
          "content": "pasta-do-arquivo/imagem.jpg",
          "description": "Imagem da minha infância"
        },
        {
          "type": "audio",
          "content": "pasta-do-arquivo/audio.mp3",
          "description": "Uma mensagem para você"
        }
      ]
    }
]